{
  "DatabaseSettings": {
    "host": "localhost",
    "user": "root",
    "password": "",
    "database": "test_app",
    "port": 8889,
    "connectionLimit":50
  },
  "emailSettings":
  {
    "email":"justkidding597@gmail.com",
    "password":"nokidding"
  },
  "PORT":2000
}