{
	"awsBucket" : "internsclabs",
	"awsAccessKey" : "AKIAJA2GZXI6NQOIXMUA",
	"awsSecretKey" : "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",
	"folder" : "balwinder_images",
	"options" : {
		"storageType" : "STANDARD",
		"acl" : "private",
		"checkMD5" : true
	}
}